20

2
A
B
1 2
2 1

2
A
B
1 2
1 2
1 2
1 2
2 1
2 1
2 1

3
A
B
C
1 2 3
1 3 2

3
A
B
C
1 2 3
2 3 1

3
A
B
C
2 3 1
3 1 2

3
A
B
C
1 2 3
2 3 1
3 1 2

3
A
B
C
1 2 3
1 3 2
2 1 3
2 3 1
3 1 2
3 1 2

3
A
B
C
1 2 3
1 3 2
2 3 1
3 2 1
1 2 3
3 2 1

3
A
B
C
1 2 3
1 3 2
2 3 1
3 2 1
1 2 3
3 2 1
3 1 2

7
A
B
C
D
E
F
G
1 2 3 4 5 6 7
2 3 4 5 6 7 1
3 4 5 6 7 1 2
4 5 6 7 1 2 3
5 6 7 1 2 3 4
6 7 1 2 3 4 5
7 1 2 3 4 5 6

7
A
B
C
D
E
F
G
1 2 3 4 5 6 7
2 3 4 5 6 7 1
3 4 5 6 7 1 2
4 5 6 7 1 2 3
5 6 7 1 2 3 4
6 7 1 2 3 4 5
7 1 2 3 4 5 6
1 2 3 4 5 6 7
2 3 4 5 6 7 1

5
A
B
C
D
E
2 3 4 5 1
2 3 4 5 1
3 4 5 1 2
3 5 4 2 1
4 5 1 2 3
5 4 3 2 1

5
A
B
C
D
E
2 3 4 5 1
2 3 4 5 1
2 4 5 1 3
3 5 4 2 1
4 5 1 2 3
5 4 3 2 1

7
A
B
C
D
E
F
G
1 2 3 4 5 6 7

7
A
B
C
D
E
F
G
1 2 3 4 5 6 7
2 3 4 5 6 7 1
3 4 5 6 7 1 2
4 5 6 7 1 2 3

7
A
B
C
D
E
F
G
1 2 3 4 5 6 7
2 3 4 5 6 7 1
3 4 5 6 7 1 2
4 5 6 7 1 2 3
5 6 7 1 2 3 4
6 7 1 2 3 4 5
7 1 2 3 4 5 6
1 2 3 4 5 6 7
2 3 4 5 6 7 1
3 4 5 6 7 1 2

6
A
B
C
D
E
F
1 2 3 4 5 6
1 2 3 4 5 6
2 1 3 4 5 6
2 1 3 4 5 6

6
A
B
C
D
E
F
1 3 4 5 6 2
1 3 4 5 6 2
2 3 4 5 6 1
2 3 4 5 6 1

6
A
B
C
D
E
F
1 3 4 5 6 2
1 3 4 5 6 2
2 3 4 5 6 1
2 3 4 5 6 1
3 4 5 6 2 1
4 5 6 3 2 1
5 6 1 2 4 3

6
A
B
C
D
E
F
1 3 4 5 6 2
1 3 4 5 6 2
2 3 4 5 6 1
2 3 4 5 6 1
1 2 3 4 5 6
1 2 3 4 5 6
2 3 4 5 6 1
2 5 6 1 3 4
6 1 2 3 4 5
6 1 2 3 4 5
6 5 4 3 2 1
1 2 6 3 4 5
