yjiv2aAw-30725978

GHShPyXk-20935123
blZ1YZWb-35793428

MJhuPJTR-68152450

pVXhenM4-06842348

s18HUdtU-60679264

w5lBHO00-59513566

4VxFwwfn-69695321

iahCloYR-57586580

nbjF3ENm-96875288
W1jbXPMP-46903180

GLVux91c-54663251

DioLcelH-60138208

nWZa_b7_-79018046

azsvY8WB-85159853

FtkAVln6-13516918

PLAqSKlY-46483935

WiWcWqg9-13686259

nJGk0aNB-30060517

68PovU0D-97683362

tR1Dpx_H-18835190

DXpGi_Dy-71441809
