20

4
Candidate_1
Candidate_2
Candidate_3
Candidate_4
3 4 1 2
4 2 3 1
3 1 4 2
2 1 3 4
1 2 3 4
3 1 2 4
2 3 1 4

5
Candidate_1
Candidate_2
Candidate_3
Candidate_4
Candidate_5
4 3 5 1 2
4 1 5 2 3
2 1 3 4 5
2 3 4 1 5
1 4 5 2 3
2 1 4 5 3
3 4 5 1 2
5 2 3 1 4

4
Candidate_1
Candidate_2
Candidate_3
Candidate_4
4 1 3 2
4 1 3 2
1 2 3 4
4 1 2 3
1 2 4 3
1 2 3 4

6
Candidate_1
Candidate_2
Candidate_3
Candidate_4
Candidate_5
Candidate_6
4 2 3 6 1 5
6 5 1 3 2 4
3 4 1 5 2 6
5 6 3 4 1 2
1 4 5 3 2 6

4
Candidate_1
Candidate_2
Candidate_3
Candidate_4
4 3 2 1
1 3 2 4
2 4 3 1
1 2 3 4
4 3 1 2
1 4 3 2

5
Candidate_1
Candidate_2
Candidate_3
Candidate_4
Candidate_5
4 3 2 1 5
3 1 2 4 5
4 2 1 3 5
5 4 2 1 3
4 2 5 3 1
3 4 2 5 1
5 3 4 2 1
4 2 3 1 5

9
Candidate_1
Candidate_2
Candidate_3
Candidate_4
Candidate_5
Candidate_6
Candidate_7
Candidate_8
Candidate_9
4 5 9 8 6 1 7 2 3
7 6 3 8 9 1 5 4 2
6 4 2 3 8 9 7 5 1
4 3 1 9 6 2 5 8 7
8 5 1 6 2 4 9 3 7
7 8 9 3 6 1 5 4 2
6 2 3 7 1 8 9 4 5

9
Candidate_1
Candidate_2
Candidate_3
Candidate_4
Candidate_5
Candidate_6
Candidate_7
Candidate_8
Candidate_9
2 5 8 4 7 1 6 9 3
6 4 8 3 1 7 2 5 9
2 3 7 6 8 5 4 9 1

6
Candidate_1
Candidate_2
Candidate_3
Candidate_4
Candidate_5
Candidate_6
6 4 1 2 3 5
3 5 6 1 2 4
2 6 5 3 1 4
3 1 2 5 6 4

5
Candidate_1
Candidate_2
Candidate_3
Candidate_4
Candidate_5
4 5 2 3 1
5 3 4 1 2
1 5 3 2 4
1 5 3 4 2
5 3 4 1 2

6
Candidate_1
Candidate_2
Candidate_3
Candidate_4
Candidate_5
Candidate_6
6 3 2 5 4 1
4 6 3 1 2 5
1 2 5 3 6 4

8
Candidate_1
Candidate_2
Candidate_3
Candidate_4
Candidate_5
Candidate_6
Candidate_7
Candidate_8
3 4 2 7 5 8 6 1
1 8 5 3 4 6 7 2
5 2 7 6 3 4 8 1
4 7 5 1 3 8 6 2
8 4 3 1 2 6 5 7

5
Candidate_1
Candidate_2
Candidate_3
Candidate_4
Candidate_5
2 4 3 5 1
3 4 5 1 2
1 2 3 5 4
3 5 2 1 4
5 2 1 4 3
5 4 3 2 1
1 2 3 4 5
4 5 2 1 3

8
Candidate_1
Candidate_2
Candidate_3
Candidate_4
Candidate_5
Candidate_6
Candidate_7
Candidate_8
8 4 5 2 7 6 3 1
1 8 2 3 5 6 4 7
4 2 1 8 5 3 7 6
6 3 2 5 8 4 1 7
6 7 8 1 2 3 4 5
1 2 4 8 5 3 6 7
2 1 7 6 3 8 5 4
8 7 1 4 2 5 3 6
5 7 2 8 1 6 4 3

4
Candidate_1
Candidate_2
Candidate_3
Candidate_4
3 4 1 2
3 1 2 4
4 3 2 1
2 1 3 4
4 2 1 3
2 4 1 3
1 2 4 3
1 2 3 4

8
Candidate_1
Candidate_2
Candidate_3
Candidate_4
Candidate_5
Candidate_6
Candidate_7
Candidate_8
2 8 3 7 1 4 6 5
5 7 8 2 3 4 1 6
5 3 1 6 4 8 7 2

6
Candidate_1
Candidate_2
Candidate_3
Candidate_4
Candidate_5
Candidate_6
2 6 5 1 3 4
6 4 3 2 1 5
1 5 6 2 4 3
3 6 4 5 1 2
4 1 2 5 3 6
1 4 5 6 2 3
1 6 4 3 5 2
1 2 5 4 6 3

6
Candidate_1
Candidate_2
Candidate_3
Candidate_4
Candidate_5
Candidate_6
5 2 4 3 6 1
2 3 6 1 4 5
1 2 6 3 5 4
3 2 1 6 4 5
5 1 3 4 6 2

4
Candidate_1
Candidate_2
Candidate_3
Candidate_4
2 4 3 1
2 4 3 1
4 3 2 1

5
Candidate_1
Candidate_2
Candidate_3
Candidate_4
Candidate_5
1 4 2 3 5
2 5 1 3 4
4 3 2 5 1
4 5 3 1 2
3 2 5 1 4
